<?xml version="1.0" encoding="UTF-8"?>
<svg width="30px" height="30px" viewBox="0 0 30 30" version="1.1" xmlns="http://www.w3.org/2000/svg" xmlns:xlink="http://www.w3.org/1999/xlink">
    <!-- Generator: Sketch 50.2 (55047) - http://www.bohemiancoding.com/sketch -->
    <title>G +</title>
    <desc>Created with Sketch.</desc>
    <defs></defs>
    <g id="Styles" stroke="none" stroke-width="1" fill="none" fill-rule="evenodd">
        <g id="Hover" transform="translate(-490.000000, -1333.000000)">
            <g id="SHARE-ICONS-HOVER" transform="translate(338.000000, 1333.000000)">
                <g id="ICONS">
                    <g id="G-+" transform="translate(152.000000, 0.000000)">
                        <circle id="Oval-2-Copy-3" fill="#FFF3F4" cx="15" cy="15" r="15"></circle>
                        <path d="M11.125,14.25 L11.125,16.35 L14.59875,16.35 C14.45875,17.250375 13.54875,18.9925 11.125,18.9925 C9.03375,18.9925 7.3275,17.260875 7.3275,15.125 C7.3275,12.99 9.03375,11.2575 11.125,11.2575 C12.315,11.2575 13.11125,11.765 13.56625,12.2025 L15.22875,10.60125 C14.16125,9.60375 12.77875,9 11.125,9 C7.73875,9 5,11.73875 5,15.125 C5,18.51125 7.73875,21.25 11.125,21.25 C14.66,21.25 17.005875,18.765 17.005875,15.265 C17.005875,14.8625 16.96125,14.55625 16.90875,14.25 L11.125,14.25 Z M11.125,14.25 L26,16 L23.375,16 L23.375,18.625 L21.625,18.625 L21.625,16 L19,16 L19,14.25 L21.625,14.25 L21.625,11.625 L23.375,11.625 L23.375,14.25 L26,14.25 L26,16 L11.125,14.25 Z" id="Shape" fill="#799CED" fill-rule="nonzero"></path>
                    </g>
                </g>
            </g>
        </g>
    </g>
</svg>