<?xml version="1.0" encoding="UTF-8"?>
<svg width="15px" height="15px" viewBox="0 0 15 15" version="1.1" xmlns="http://www.w3.org/2000/svg" xmlns:xlink="http://www.w3.org/1999/xlink">
    <!-- Generator: Sketch 50.2 (55047) - http://www.bohemiancoding.com/sketch -->
    <title>Fill 1</title>
    <desc>Created with Sketch.</desc>
    <defs></defs>
    <g id="Symbols" stroke="none" stroke-width="1" fill="none" fill-rule="evenodd">
        <g id="Search" fill="#FC6429">
            <path d="M10.7875188,6.06540312 C10.7879659,7.32492963 10.2946225,8.5107484 9.39843051,9.40436587 C8.50329053,10.2969052 7.31675732,10.7886144 6.05745471,10.7889299 L6.05632385,10.7889299 C4.79641636,10.7889299 3.60851561,10.2944071 2.7113769,9.39642447 C1.81479047,8.49899409 1.32189411,7.31183421 1.32352465,6.0536751 C1.32515519,4.78636497 1.82417922,3.59384071 2.72862906,2.69567403 C3.6196138,1.81091832 4.7926819,1.32473131 6.03470605,1.32473131 C6.04356882,1.32473131 6.05258939,1.32475761 6.06145216,1.3248102 C7.33527184,1.33193642 8.52532911,1.82643297 9.41244789,2.71715787 C10.2987251,3.6070939 10.7870717,4.79617338 10.7875188,6.06540312 M14.738448,13.6161722 C13.4338584,12.3107592 12.1546737,11.0311688 10.8564749,9.73643194 C11.6734278,8.66962892 12.0938441,7.43931729 12.1064676,6.07757817 C12.1202483,5.76623336 12.0836664,5.45901702 12.0449805,5.17094418 C12.0133428,4.93517411 11.9599557,4.68507272 11.8817161,4.40636126 C11.4558823,2.8891864 10.4623839,1.61501301 9.08420973,0.81858562 C7.70603552,0.0221319298 6.10605531,-0.202541219 4.57876562,0.185929805 C3.74298254,0.398533083 2.97928509,0.774881644 2.30887029,1.30450967 C1.66341327,1.81449458 1.1355918,2.44070787 0.740185927,3.16579418 C0.347173267,3.88646276 0.107720625,4.66314184 0.0285342551,5.47424241 C-0.0537291016,6.31700339 0.042078254,7.15492589 0.313379017,7.96468536 C0.754229607,9.28059053 1.63543111,10.4136858 2.79458702,11.1552597 C3.76783512,11.7778704 4.91018595,12.1066758 6.07031493,12.1066232 C6.29669696,12.1066232 6.52394685,12.0941063 6.75053927,12.0688095 C7.85344157,11.9456127 8.85835369,11.5369727 9.73860842,10.8539337 C10.6001645,11.7205188 11.4777631,12.5975961 12.326985,13.4463263 L12.9915614,14.1105636 C13.0563622,14.1753833 13.1210315,14.2403344 13.1857271,14.3053119 C13.3353686,14.4555673 13.4900857,14.6109505 13.6446977,14.7624155 C13.8051218,14.9196657 14.0082292,15 14.2120992,15 C14.3732597,15 14.5348935,14.9497483 14.6761982,14.8476409 C14.8652619,14.7109805 14.9793996,14.5107101 14.997546,14.2836966 C15.0167706,14.0434825 14.922357,13.8001654 14.738448,13.6161722" id="Fill-1"></path>
        </g>
    </g>
</svg>