<?xml version="1.0" encoding="UTF-8"?>
<svg width="30px" height="30px" viewBox="0 0 30 30" version="1.1" xmlns="http://www.w3.org/2000/svg" xmlns:xlink="http://www.w3.org/1999/xlink">
    <!-- Generator: Sketch 50.2 (55047) - http://www.bohemiancoding.com/sketch -->
    <title>PINTEREST</title>
    <desc>Created with Sketch.</desc>
    <defs></defs>
    <g id="Styles" stroke="none" stroke-width="1" fill="none" fill-rule="evenodd">
        <g id="Hover" transform="translate(-440.000000, -1333.000000)">
            <g id="SHARE-ICONS-HOVER" transform="translate(338.000000, 1333.000000)">
                <g id="ICONS">
                    <g id="PINTEREST" transform="translate(102.000000, 0.000000)">
                        <circle id="Oval-2-Copy-2" fill="#FFF3F4" cx="15" cy="15" r="15"></circle>
                        <path d="M15.5,7 C10.805875,7 7,10.8051667 7,15.5 C7,19.1011667 9.24045833,22.17675 12.4024583,23.4149167 C12.3280833,22.7427083 12.2607917,21.711375 12.4322083,20.9775417 C12.586625,20.3138333 13.4288333,16.7523333 13.4288333,16.7523333 C13.4288333,16.7523333 13.1745417,16.2430417 13.1745417,15.4900833 C13.1745417,14.3085833 13.8595,13.426 14.7123333,13.426 C15.4369583,13.426 15.7875833,13.9707083 15.7875833,14.6230833 C15.7875833,15.3519583 15.323625,16.4420833 15.0835,17.452875 C14.8830417,18.298625 15.5077917,18.98925 16.3422083,18.98925 C17.8530833,18.98925 19.0140417,17.3962083 19.0140417,15.0969583 C19.0140417,13.0619167 17.5520417,11.638875 15.463875,11.638875 C13.045625,11.638875 11.626125,13.4529167 11.626125,15.3271667 C11.626125,16.0574583 11.9073333,16.8415833 12.2586667,17.2665833 C12.3280833,17.350875 12.338,17.42525 12.3174583,17.5109583 L12.0815833,18.4742917 C12.0440417,18.630125 11.9583333,18.6634167 11.7968333,18.5883333 C10.7350417,18.0939167 10.0713333,16.5419583 10.0713333,15.2952917 C10.0713333,12.61425 12.01925,10.151375 15.6877083,10.151375 C18.6365,10.151375 20.9279583,12.253 20.9279583,15.0608333 C20.9279583,17.9905 19.0813333,20.3478333 16.5171667,20.3478333 C15.6558333,20.3478333 14.8462083,19.900875 14.56925,19.37175 L14.0394167,21.392625 C13.8474583,22.1314167 13.3296667,23.0572083 12.9825833,23.6210417 C13.77875,23.8668333 14.6237917,24 15.5,24 C20.194125,24 24,20.194125 24,15.5 C24,10.8051667 20.194125,7 15.5,7 Z" id="Shape" fill="#F9CDCE" fill-rule="nonzero"></path>
                    </g>
                </g>
            </g>
        </g>
    </g>
</svg>